{
  "Game Dictionary": {
    "ARTIFACT": {
      "NAMES": [
        "артефакт",
        "артефакта"
      ],
      "DESCRIPTION": "Отменяет следующий отриц. эффект."
    },
    "BLOCK": {
      "NAMES": [
        "защита",
        "защиты",
        "защиту",
        "защите"
      ],
      "DESCRIPTION": "Предотвращает урон до следующего хода."
    },
    "EVOKE": {
      "NAMES": [
        "evoke",
        "evoked"
      ],
      "DESCRIPTION": "Consume your rightmost Orb and use its Evoke effect."
    },
    "CURSE": {
      "NAMES": [
        "проклятия",
        "проклятие",
        "проклятий"
      ],
      "DESCRIPTION": "Вредоносные карты в вашей колоде."
    },
    "DEXTERITY": {
      "NAMES": [
        "ловкость",
        "ловкости"
      ],
      "DESCRIPTION": "Увеличивает количество Защиты, получаемой от карт."
    },
    "ETHEREAL": {
      "NAMES": [
        "Эфирные карты",
        "эфирная"
      ],
      "DESCRIPTION": "Сжигаются (убираются до конца боя) в конце хода, если находятся в руке."
    },
    "EXHAUST": {
      "NAMES": [
        "Сжигание",
        "сжигает",
        "сожжённую",
        "сжигается",
        "сжигании",
        "сжигаете"
      ],
      "DESCRIPTION": "Сжигаемые карты убираются из колоды до конца текущего боя."
    },
    "INNATE": {
      "NAMES": [
        "Начальные карты",
        "начальная"
      ],
      "DESCRIPTION": "Берутся в первую руку каждого боя."
    },
    "FOCUS": {
      "NAMES": [
        "focus"
      ],
      "DESCRIPTION": "Focus increases the effectiveness of #yChanneled Orbs."
    },
    "LOCKED": {
      "NAMES": [
        "закрыто"
      ],
      "DESCRIPTION": "Эта карта еще не открыта."
    },
    "OPENER": {
      "NAMES": [
        "opener"
      ],
      "DESCRIPTION": "Opener cards may only be played as the first card each turn."
    },
    "POISON": {
      "NAMES": [
        "яд",
        "яда",
        "ядом"
      ],
      "DESCRIPTION": "Отравленные ядом существа теряют ОЗ в начале своего хода, после чего Яд снижается на #b1."
    },
    "RETAIN": {
      "NAMES": [
        "оставить",
        "оставляете"
      ],
      "DESCRIPTION": "Оставленные карты не сбрасываются в конце вашего хода."
    },
    "SHIV": {
      "NAMES": [
        "заточки",
        "заточка",
        "заточке",
        "заточку"
      ],
      "DESCRIPTION": "Карты Атаки ценой в #b0, которые Сжигаются при разыгрывании."
    },
    "STATUS": {
      "NAMES": [
        "статусы",
        "статус",
        "статусом",
        "статуса"
      ],
      "DESCRIPTION": "Вредоносные карты, которые убираются из колоды в конце боя."
    },
    "STRENGTH": {
      "NAMES": [
        "сила",
        "силы",
        "силу"
      ],
      "DESCRIPTION": "Добавляет дополнительный урон к Атакам."
    },
    "TRANSFORM": {
      "NAMES": [
        "Изменение карт",
        "изменение",
        "изменить",
        "изменяет",
        "измените"
      ],
      "DESCRIPTION": "Изменённые карты становятся случайными картами варьируемой редкости."
    },
    "UNKNOWN": {
      "NAMES": [
        "неизвестно"
      ],
      "DESCRIPTION": "Вы ещё не встречали эту карту."
    },
    "UNPLAYABLE": {
      "NAMES": [
        "Неиграбельные карты",
        "неиграбельная",
        "неиграбельность"
      ],
      "DESCRIPTION": "Их нельзя разыграть из руки."
    },
    "UPGRADE": {
      "NAMES": [
        "Улучшение карт",
        "улучшение",
        "улучшить",
        "улучшает",
        "улучшите"
      ],
      "DESCRIPTION": "Улучшенные карты становятся сильнее. Улучшать карты можно только один раз."
    },
    "VOID": {
      "NAMES": [
        "void",
        "voids"
      ],
      "DESCRIPTION": "Voids are unplayable status cards that consume energy when drawn."
    },
    "VULNERABLE": {
      "NAMES": [
        "уязвимость",
        "уязвимости",
        "уязвим"
      ],
      "DESCRIPTION": "Уязвимые существа получают на #b50% больше урона от Атак."
    },
    "WEAK": {
      "NAMES": [
        "слабость",
        "слабости",
        "слаб",
        "ослаблен"
      ],
      "DESCRIPTION": "Ослабленные существа наносят на #b25% меньше урона Атаками."
    },
    "WOUND": {
      "NAMES": [
        "раны",
        "рана",
        "рану"
      ],
      "DESCRIPTION": "Неиграбельные Статусные карты."
    },
    "DAZED": {
      "NAMES": [
        "головокружение"
      ],
      "DESCRIPTION": "Головокружения — это эфирные Статусные карты, которые нельзя разыграть."
    },
    "BURN": {
      "NAMES": [
        "ожог",
        "burns"
      ],
      "DESCRIPTION": "Ожоги — это Статусные карты, которые наносят вам урон и которые нельзя разыграть."
    },
    "FRAIL": {
      "NAMES": [
        "хрупкость"
      ],
      "DESCRIPTION": "Хрупкие существа получают на #b25% меньше #yЗащиты от карт."
    },
    "STRIKE": {
      "NAMES": [
        "Карты Ударов",
        "удара"
      ],
      "DESCRIPTION": "Любые карты со словом «Удар» в названии."
    },
    "CONFUSED": {
      "NAMES": [
        "замешательство",
        "замешательстве"
      ],
      "DESCRIPTION": "Каждая взятая карта будет иметь случайную стоимость."
    },
    "INTANGIBLE": {
      "NAMES": [
        "неосязаемость"
      ],
      "DESCRIPTION": "Понижает ЛЮБУЮ потерю ОЗ до #b1."
    },
    "LIGHTNING": {
      "NAMES": [
        "lightning",
        "lightning+"
      ],
      "DESCRIPTION": "Orb: Deals damage to random enemies."
    },
    "FROST": {
      "NAMES": [
        "frost",
        "frost+"
      ],
      "DESCRIPTION": "Orb: Gains #yBlock."
    },
    "DARK": {
      "NAMES": [
        "dark",
        "dark+"
      ],
      "DESCRIPTION": "Orb: Increases damage every turn. When #yEvoked, deals damage to the enemy with the least HP."
    },
    "PLASMA": {
      "NAMES": [
        "plasma",
        "plasma+"
      ],
      "DESCRIPTION": "Orb: Gains Energy."
    },
    "CHANNEL": {
      "NAMES": [
        "channel",
        "channeled"
      ],
      "DESCRIPTION": "Channeling an Orb puts it into your first empty slot. If you have no empty slots, your first Orb is automatically #yEvoked to make room."
    },
    "TODO": {
      "NAMES": [
        "сделать",
        "JUST FOR DEVS, HUH?",
        "WHAT DID I JUST TELL YOU?",
        "YOU CANNOT STOP ME",
        "WHAT ARE YOU GOING TO DO?"
      ],
      "DESCRIPTION": "Эта карта ЕЩЁ НЕ ГОТОВА. Не помешало бы исправить это..."
    },
    "TEXT": [
      "Энергия используется для разыгрывания карт в руке."
    ]
  }
}